…
### Datasets

``` r
library(tibble)
library(tiltWebTool)
library(tiltDevTools)

packageVersion("tiltWebTool")
#> [1] '0.0.0.9001'
```

``` r

emissions
#> # A tibble: 72 × 3
#>    companies_id                              product           company 
#>  * <chr>                                     <list>            <list>  
#>  1 asteria_megalotomusquinquespinosus        <tibble [6 × 28]> <tibble>
#>  2 skarn_gallinule                           <tibble [6 × 28]> <tibble>
#>  3 relegable_southernhairnosedwombat         <tibble [6 × 28]> <tibble>
#>  4 psychodelic_airedale                      <tibble [6 × 28]> <tibble>
#>  5 ergophilic_fieldspaniel                   <tibble [6 × 28]> <tibble>
#>  6 preexistent_africanmolesnake              <tibble [6 × 28]> <tibble>
#>  7 wealthy_ocelot                            <tibble [6 × 28]> <tibble>
#>  8 fulltime_mollusk                          <tibble [6 × 28]> <tibble>
#>  9 gentlemanlike_asiaticlesserfreshwaterclam <tibble [6 × 28]> <tibble>
#> 10 frowsy_metalmarkbutterfly                 <tibble [6 × 28]> <tibble>
#> # ℹ 62 more rows
```
…
``` r

sector
#> # A tibble: 72 × 3
#>    companies_id                       product           company           
#>  * <chr>                              <list>            <list>            
#>  1 antimonarchy_canine                <tibble [4 × 25]> <tibble [16 × 12]>
#>  2 celestial_lovebird                 <tibble [4 × 25]> <tibble [16 × 12]>
#>  3 nonphilosophical_llama             <tibble [8 × 25]> <tibble [16 × 12]>
#>  4 asteria_megalotomusquinquespinosus <tibble [4 × 25]> <tibble [16 × 12]>
#>  5 quasifaithful_amphiuma             <tibble [4 × 25]> <tibble [16 × 12]>
#>  6 spectacular_americanriverotter     <tibble [4 × 25]> <tibble [16 × 12]>
#>  7 contrite_silkworm                  <tibble [4 × 25]> <tibble [16 × 12]>
#>  8 harmless_owlbutterfly              <tibble [4 × 25]> <tibble [16 × 12]>
#>  9 fascist_maiasaura                  <tibble [4 × 25]> <tibble [16 × 12]>
#> 10 charismatic_islandwhistler         <tibble [4 × 25]> <tibble [16 × 12]>
#> # ℹ 62 more rows
```
…
