# hasn't changed

    Code
      dictionary()
    Output
      # A tibble: 81 x 5
         dataset   level   name                      type      definition 
         <chr>     <chr>   <chr>                     <chr>     <chr>      
       1 emissions product companies_id              character coming soon
       2 emissions product company_name              character coming soon
       3 emissions product country                   character coming soon
       4 emissions product emission_profile          character coming soon
       5 emissions product benchmark                 character coming soon
       6 emissions product ep_product                character coming soon
       7 emissions product matched_activity_name     character coming soon
       8 emissions product matched_reference_product character coming soon
       9 emissions product unit                      character coming soon
      10 emissions product multi_match               logical   coming soon
      # i 71 more rows
